Mazda RX4;12/31/2016;very satisfied
Mazda RX4 Wag;07/28/2012;satisfied
Datsun 710;08/19/2014;indifferent
Hornet 4 Drive;02/14/2013;dissatisfied
Hornet Sportabout;04/08/2011;very dissatisfied
Valiant;12/20/2016;very satisfied
Duster 360;07/12/2012;satisfied
Merc 240D;08/02/2014;indifferent
Merc 230;02/24/2013;dissatisfied
Merc 280;04/09/2011;very dissatisfied
Merc 280C;12/31/2012;very satisfied
Merc 450SE;07/28/2015;satisfied
Merc 450SL;08/19/2016;indifferent
Merc 450SLC;02/14/2012;dissatisfied
Cadillac Fleetwood;04/08/2010;very dissatisfied
Lincoln Continental;12/20/2006;very satisfied
Chrysler Imperial;07/12/2002;satisfied
Fiat 128;08/02/2004;indifferent
Honda Civic;02/24/2003;dissatisfied
Toyota Corolla;04/09/2001;very dissatisfied
Toyota Corona;12/09/2011;very satisfied
Dodge Challenger;12/15/2012;satisfied
AMC Javelin;07/22/2015;indifferent
Camaro Z28;08/18/2016;dissatisfied
Pontiac Firebird;02/19/2012;very dissatisfied
Fiat X1-9;04/18/2010;very satisfied
Porsche 914-2;12/26/2006;satisfied
Lotus Europa;07/04/2002;indifferent
Ford Pantera L;08/02/2009;dissatisfied
Ferrari Dino;02/24/2015;very dissatisfied
Maserati Bora;04/09/2007;very satisfied
Volvo 142E;08/02/2012;satisfied